<?xml version="1.0" encoding="UTF-8" standalone="no"?>
<!-- Created with Inkscape (http://www.inkscape.org/) -->

<svg
   xmlns:dc="http://purl.org/dc/elements/1.1/"
   xmlns:cc="http://creativecommons.org/ns#"
   xmlns:rdf="http://www.w3.org/1999/02/22-rdf-syntax-ns#"
   xmlns:svg="http://www.w3.org/2000/svg"
   xmlns="http://www.w3.org/2000/svg"
   xmlns:sodipodi="http://sodipodi.sourceforge.net/DTD/sodipodi-0.dtd"
   xmlns:inkscape="http://www.inkscape.org/namespaces/inkscape"
   width="35mm"
   height="35mm"
   viewBox="0 0 35 34.999999"
   version="1.1"
   id="svg8383"
   inkscape:version="0.92.2 5c3e80d, 2017-08-06"
   sodipodi:docname="pipe_broken.svg">
  <defs
     id="defs8377">
    <inkscape:path-effect
       effect="bspline"
       id="path-effect8287"
       is_visible="true"
       weight="33.333333"
       steps="2"
       helper_size="0"
       apply_no_weight="true"
       apply_with_weight="true"
       only_selected="false" />
    <inkscape:path-effect
       effect="bspline"
       id="path-effect8283"
       is_visible="true"
       weight="33.333333"
       steps="2"
       helper_size="0"
       apply_no_weight="true"
       apply_with_weight="true"
       only_selected="false" />
  </defs>
  <sodipodi:namedview
     id="base"
     pagecolor="#ffffff"
     bordercolor="#666666"
     borderopacity="1.0"
     inkscape:pageopacity="0.0"
     inkscape:pageshadow="2"
     inkscape:zoom="1.6625"
     inkscape:cx="67.955668"
     inkscape:cy="64.576736"
     inkscape:document-units="mm"
     inkscape:current-layer="layer1"
     showgrid="false"
     fit-margin-top="0"
     fit-margin-left="0"
     fit-margin-right="0"
     fit-margin-bottom="0"
     inkscape:window-width="1278"
     inkscape:window-height="775"
     inkscape:window-x="0"
     inkscape:window-y="23"
     inkscape:window-maximized="1" />
  <metadata
     id="metadata8380">
    <rdf:RDF>
      <cc:Work
         rdf:about="">
        <dc:format>image/svg+xml</dc:format>
        <dc:type
           rdf:resource="http://purl.org/dc/dcmitype/StillImage" />
        <dc:title></dc:title>
      </cc:Work>
    </rdf:RDF>
  </metadata>
  <g
     inkscape:label="Ebene 1"
     inkscape:groupmode="layer"
     id="layer1"
     transform="translate(-46.22332,-105.10256)">
    <g
       id="g8245"
       transform="matrix(0.00916373,0,0,0.00916373,60.089196,128.6595)"
       style="stroke-width:28.87287712">
      <g
         id="g8243"
         transform="matrix(0.1,0,0,-0.1,0,512)"
         style="stroke-width:28.87287712">
        <path
           id="path8241"
           d="M 3517.3417,5376.645 C 3118.1513,4490.3433 1445.9417,2575.145 894.04173,1469.4449 336.44172,348.44493 225.24177,-257.15508 414.94173,-1115.655 c 155.19996,-697.5 490.6,-1295.4 1005.99997,-1793.6 318.1,-308.5 557.6,-475.2 946.6,-663 1352.9,-653.5 2960.7,-392.8 4041.4,651.5 523.1,507.8 858.5,1105.7 1015.6,1805.1 151.5,680.29996 109.4,1153.599943 -168.5,1904.79994 -107.3,291.29996 -517.4,1103.80006 -768.4,1523.40006 -643.9,1075 -1868.4847,3018.2896 -2454.1643,4875.7541 -28.7,38.4 -116.9453,-925.3524 -516.1357,-1811.6541 z m -1755.2,-4003.0001 c -122.7,-475.29996 -176.3,-973.49997 -151.4,-1418.099956 17.2,-285.500024 23,-329.600024 80.5,-593.999934 184,-847.00001 730.1,-1611.60001 1500.4,-2098.30001 l 172.5,-109.2 -172.5,13.4 c -940.9,70.9 -1726.6,680.3 -1981.4,1534.9 -111.2,373.69997 -139.9,933.19992 -70.9,1358.699943 65.2,402.399997 212.7,827.799997 392.8,1144.000057 84.3,145.5999 268.3,406.2 279.8,394.7 3.8,-1.9 -19.2,-105.4001 -49.8,-226.1001 z"
           inkscape:connector-curvature="0"
           style="stroke-width:28.87287712"
           sodipodi:nodetypes="zccccccccczccccccccccc" />
      </g>
    </g>
    <rect
       style="fill:#000000;fill-opacity:1;stroke:none;stroke-width:0.49999997;stroke-linecap:butt;stroke-miterlimit:4;stroke-dasharray:none;stroke-dashoffset:0;stroke-opacity:1"
       id="rect8256"
       width="34.712502"
       height="8.3275557"
       x="46.448387"
       y="116.02528" />
    <rect
       style="fill:#000000;fill-opacity:1;stroke:none;stroke-width:0.5;stroke-linecap:butt;stroke-miterlimit:4;stroke-dasharray:none;stroke-dashoffset:0;stroke-opacity:1"
       id="rect8258-9"
       width="2.2506907"
       height="12.828938"
       x="53.373718"
       y="113.7746" />
    <rect
       style="fill:#000000;fill-opacity:1;stroke:none;stroke-width:0.5;stroke-linecap:butt;stroke-miterlimit:4;stroke-dasharray:none;stroke-dashoffset:0;stroke-opacity:1"
       id="rect8258-3"
       width="2.2506907"
       height="12.828938"
       x="72.164444"
       y="113.7746" />
    <path
       style="fill:#ffffff;fill-opacity:1;fill-rule:evenodd;stroke:none;stroke-width:0.26458332px;stroke-linecap:butt;stroke-linejoin:miter;stroke-opacity:1"
       d="m 63.118947,124.36005 c 0,0 0.709231,-2.62176 0.709231,-2.62176 0,0 -1.396351,0.25722 -1.396351,0.25722 0,0 1.616841,-2.16803 1.616841,-2.16803 0,0 -0.800881,-0.77788 -0.800881,-0.77788 0,0 1.13159,-2.38228 1.13159,-2.38228 0,0 -0.812929,2.37666 -0.812929,2.37666 0,0 1.021879,0.63653 1.021879,0.63653 0,0 -1.15696,1.6484 -1.15696,1.6484 0,0 1.22854,0.0327 1.22854,0.0327 0,0 -0.10991,3.02675 -0.10991,3.02675 0,0 -1.43105,-0.0283 -1.43105,-0.0283 z"
       id="path8281"
       inkscape:connector-curvature="0"
       inkscape:path-effect="#path-effect8283"
       inkscape:original-d="m 63.118947,124.36005 0.709231,-2.62176 -1.396351,0.25722 1.616841,-2.16803 -0.800881,-0.77788 1.13159,-2.38228 -0.812929,2.37666 1.021879,0.63653 -1.15696,1.6484 1.22854,0.0327 -0.10991,3.02675 z"
       sodipodi:nodetypes="cccccccccccc" />
    <path
       style="fill:none;fill-rule:evenodd;stroke:#000000;stroke-width:0.26458332px;stroke-linecap:butt;stroke-linejoin:miter;stroke-opacity:1"
       d="m 81.748418,132.02509 c -0.106079,-0.0928 -0.212178,-0.18565 -0.318301,-0.2785"
       id="path8285"
       inkscape:connector-curvature="0"
       inkscape:path-effect="#path-effect8287"
       inkscape:original-d="m 81.748418,132.02509 c -0.10583,-0.0931 -0.211931,-0.18593 -0.318301,-0.2785" />
    <rect
       style="fill:#000000;fill-opacity:1;stroke:none;stroke-width:0.5;stroke-linecap:butt;stroke-miterlimit:4;stroke-dasharray:none;stroke-dashoffset:0;stroke-opacity:1"
       id="rect8258-3-6"
       width="2.2506907"
       height="12.828938"
       x="74.94429"
       y="113.7746" />
    <rect
       style="fill:#000000;fill-opacity:1;stroke:none;stroke-width:0.5;stroke-linecap:butt;stroke-miterlimit:4;stroke-dasharray:none;stroke-dashoffset:0;stroke-opacity:1"
       id="rect8258-3-6-0"
       width="2.2506907"
       height="12.828938"
       x="50.593872"
       y="113.7746" />
  </g>
</svg>
